{
    "workc": {
        "awscloudformation": {
            "AuthRoleName": "cowork-workc-20190528132137-authRole",
            "UnauthRoleArn": "arn:aws:iam::460860432100:role/cowork-workc-20190528132137-unauthRole",
            "AuthRoleArn": "arn:aws:iam::460860432100:role/cowork-workc-20190528132137-authRole",
            "Region": "us-east-1",
            "DeploymentBucketName": "cowork-workc-20190528132137-deployment",
            "UnauthRoleName": "cowork-workc-20190528132137-unauthRole",
            "StackName": "cowork-workc-20190528132137",
            "StackId": "arn:aws:cloudformation:us-east-1:460860432100:stack/cowork-workc-20190528132137/6db7d670-811d-11e9-a8e6-0a51b82e168a"
        },
        "categories": {
            "auth": {
                "cowork6ef8c972": {}
            }
        }
    }
}